^C:\USERS\ANANT\DESKTOP\ROTATING_SPHERE_WITH_LIGHT\THREE_SPHERES_PER_FRAGMENT_LIGHTING\RB\TRIANGLEPERSPECTIVE.CPP
/c /ZI /nologo /W3 /WX- /diagnostics:classic /Od /Oy- /D WIN32 /D _DEBUG /D _WINDOWS /D _UNICODE /D UNICODE /Gm /EHsc /RTC1 /MDd /GS /fp:precise /Zc:wchar_t /Zc:forScope /Zc:inline /Fo"DEBUG\\" /Fd"DEBUG\VC141.PDB" /Gd /TP /analyze- C:\USERS\ANANT\DESKTOP\ROTATING_SPHERE_WITH_LIGHT\THREE_SPHERES_PER_FRAGMENT_LIGHTING\RB\TRIANGLEPERSPECTIVE.CPP
^C:\USERS\ANANT\DESKTOP\LIGHT_ASSIGNMENTS\WINDOWS\ROTATING_SPHERE_WITH_THREE_LIGHTS\RGB\TRIANGLEPERSPECTIVE.CPP
/c /ZI /nologo /W3 /WX- /diagnostics:classic /Od /Oy- /D WIN32 /D _DEBUG /D _WINDOWS /D _UNICODE /D UNICODE /Gm /EHsc /RTC1 /MDd /GS /fp:precise /Zc:wchar_t /Zc:forScope /Zc:inline /Fo"DEBUG\\" /Fd"DEBUG\VC141.PDB" /Gd /TP /analyze- C:\USERS\ANANT\DESKTOP\LIGHT_ASSIGNMENTS\WINDOWS\ROTATING_SPHERE_WITH_THREE_LIGHTS\RGB\TRIANGLEPERSPECTIVE.CPP
