^C:\USERS\ANANT\DESKTOP\LIGHT_ASSIGNMENTS\WINDOWS\ROTATING_SPHERE_WITH_THREE_LIGHTS\RGB\TRIANGLEPERSPECTIVE.CPP
C:\USERS\ANANT\DESKTOP\LIGHT_ASSIGNMENTS\WINDOWS\ROTATING_SPHERE_WITH_THREE_LIGHTS\RGB\DEBUG\VC141.PDB
C:\USERS\ANANT\DESKTOP\LIGHT_ASSIGNMENTS\WINDOWS\ROTATING_SPHERE_WITH_THREE_LIGHTS\RGB\DEBUG\VC141.IDB
C:\USERS\ANANT\DESKTOP\LIGHT_ASSIGNMENTS\WINDOWS\ROTATING_SPHERE_WITH_THREE_LIGHTS\RGB\DEBUG\TRIANGLEPERSPECTIVE.OBJ
