^C:\USERS\ANANT\DESKTOP\LIGHT_ASSIGNMENTS\WINDOWS\ROTATING_SPHERE_WITH_THREE_LIGHTS\RGB\DEBUG\TRIANGLEPERSPECTIVE.OBJ
C:\USERS\ANANT\DESKTOP\LIGHT_ASSIGNMENTS\WINDOWS\ROTATING_SPHERE_WITH_THREE_LIGHTS\RGB\DEBUG\GANESHA_LIGHT_FIRST_CODE.ILK
C:\USERS\ANANT\DESKTOP\LIGHT_ASSIGNMENTS\WINDOWS\ROTATING_SPHERE_WITH_THREE_LIGHTS\RGB\DEBUG\GANESHA_LIGHT_FIRST_CODE.EXE
C:\USERS\ANANT\DESKTOP\LIGHT_ASSIGNMENTS\WINDOWS\ROTATING_SPHERE_WITH_THREE_LIGHTS\RGB\DEBUG\GANESHA_LIGHT_FIRST_CODE.PDB
