^C:\USERS\ANAN\DESKTOP\MODIFICATIONS\MARCHING_CUBES_BAGALMUKHI_ANANTH\BAGALMUKHI\BLOCK.CPP
C:\USERS\ANAN\DESKTOP\MODIFICATIONS\MARCHING_CUBES_BAGALMUKHI_ANANTH\BAGALMUKHI\X64\DEBUG\VC142.PDB
^C:\USERS\ANAN\DESKTOP\MODIFICATIONS\MARCHING_CUBES_BAGALMUKHI_ANANTH\BAGALMUKHI\CUBE.CPP
C:\USERS\ANAN\DESKTOP\MODIFICATIONS\MARCHING_CUBES_BAGALMUKHI_ANANTH\BAGALMUKHI\X64\DEBUG\VC142.PDB
^C:\USERS\ANAN\DESKTOP\MODIFICATIONS\MARCHING_CUBES_BAGALMUKHI_ANANTH\BAGALMUKHI\DELTATIMER.CPP
C:\USERS\ANAN\DESKTOP\MODIFICATIONS\MARCHING_CUBES_BAGALMUKHI_ANANTH\BAGALMUKHI\X64\DEBUG\VC142.PDB
^C:\USERS\ANAN\DESKTOP\MODIFICATIONS\MARCHING_CUBES_BAGALMUKHI_ANANTH\BAGALMUKHI\DENSITY_SLICER.CPP
C:\USERS\ANAN\DESKTOP\MODIFICATIONS\MARCHING_CUBES_BAGALMUKHI_ANANTH\BAGALMUKHI\X64\DEBUG\VC142.PDB
^C:\USERS\ANAN\DESKTOP\MODIFICATIONS\MARCHING_CUBES_BAGALMUKHI_ANANTH\BAGALMUKHI\GEOMETRY.CPP
C:\USERS\ANAN\DESKTOP\MODIFICATIONS\MARCHING_CUBES_BAGALMUKHI_ANANTH\BAGALMUKHI\X64\DEBUG\VC142.PDB
^C:\USERS\ANAN\DESKTOP\MODIFICATIONS\MARCHING_CUBES_BAGALMUKHI_ANANTH\BAGALMUKHI\GLERRORCHECK.CPP
C:\USERS\ANAN\DESKTOP\MODIFICATIONS\MARCHING_CUBES_BAGALMUKHI_ANANTH\BAGALMUKHI\X64\DEBUG\VC142.PDB
^C:\USERS\ANAN\DESKTOP\MODIFICATIONS\MARCHING_CUBES_BAGALMUKHI_ANANTH\BAGALMUKHI\GRID.CPP
C:\USERS\ANAN\DESKTOP\MODIFICATIONS\MARCHING_CUBES_BAGALMUKHI_ANANTH\BAGALMUKHI\X64\DEBUG\VC142.PDB
^C:\USERS\ANAN\DESKTOP\MODIFICATIONS\MARCHING_CUBES_BAGALMUKHI_ANANTH\BAGALMUKHI\INDEXED_BLOCK.CPP
C:\USERS\ANAN\DESKTOP\MODIFICATIONS\MARCHING_CUBES_BAGALMUKHI_ANANTH\BAGALMUKHI\X64\DEBUG\VC142.PDB
^C:\USERS\ANAN\DESKTOP\MODIFICATIONS\MARCHING_CUBES_BAGALMUKHI_ANANTH\BAGALMUKHI\INDEXED_GEOMETRY.CPP
C:\USERS\ANAN\DESKTOP\MODIFICATIONS\MARCHING_CUBES_BAGALMUKHI_ANANTH\BAGALMUKHI\X64\DEBUG\VC142.PDB
^C:\USERS\ANAN\DESKTOP\MODIFICATIONS\MARCHING_CUBES_BAGALMUKHI_ANANTH\BAGALMUKHI\LOD.CPP
C:\USERS\ANAN\DESKTOP\MODIFICATIONS\MARCHING_CUBES_BAGALMUKHI_ANANTH\BAGALMUKHI\X64\DEBUG\VC142.PDB
^C:\USERS\ANAN\DESKTOP\MODIFICATIONS\MARCHING_CUBES_BAGALMUKHI_ANANTH\BAGALMUKHI\LOD_VISUALIZER.CPP
C:\USERS\ANAN\DESKTOP\MODIFICATIONS\MARCHING_CUBES_BAGALMUKHI_ANANTH\BAGALMUKHI\X64\DEBUG\VC142.PDB
^C:\USERS\ANAN\DESKTOP\MODIFICATIONS\MARCHING_CUBES_BAGALMUKHI_ANANTH\BAGALMUKHI\PLANE.CPP
C:\USERS\ANAN\DESKTOP\MODIFICATIONS\MARCHING_CUBES_BAGALMUKHI_ANANTH\BAGALMUKHI\X64\DEBUG\VC142.PDB
^C:\USERS\ANAN\DESKTOP\MODIFICATIONS\MARCHING_CUBES_BAGALMUKHI_ANANTH\BAGALMUKHI\SHADERPROGRAM.CPP
C:\USERS\ANAN\DESKTOP\MODIFICATIONS\MARCHING_CUBES_BAGALMUKHI_ANANTH\BAGALMUKHI\X64\DEBUG\VC142.PDB
^C:\USERS\ANAN\DESKTOP\MODIFICATIONS\MARCHING_CUBES_BAGALMUKHI_ANANTH\BAGALMUKHI\SWARM.CPP
C:\USERS\ANAN\DESKTOP\MODIFICATIONS\MARCHING_CUBES_BAGALMUKHI_ANANTH\BAGALMUKHI\X64\DEBUG\VC142.PDB
^C:\USERS\ANAN\DESKTOP\MODIFICATIONS\MARCHING_CUBES_BAGALMUKHI_ANANTH\BAGALMUKHI\TERRAIN_GENERATOR.CPP
C:\USERS\ANAN\DESKTOP\MODIFICATIONS\MARCHING_CUBES_BAGALMUKHI_ANANTH\BAGALMUKHI\X64\DEBUG\VC142.PDB
^C:\USERS\ANAN\DESKTOP\MODIFICATIONS\MARCHING_CUBES_BAGALMUKHI_ANANTH\BAGALMUKHI\TERRAIN_GENERATOR_FAST.CPP
C:\USERS\ANAN\DESKTOP\MODIFICATIONS\MARCHING_CUBES_BAGALMUKHI_ANANTH\BAGALMUKHI\X64\DEBUG\VC142.PDB
^C:\USERS\ANAN\DESKTOP\MODIFICATIONS\MARCHING_CUBES_BAGALMUKHI_ANANTH\BAGALMUKHI\TERRAIN_GENERATOR_MEDIUM.CPP
C:\USERS\ANAN\DESKTOP\MODIFICATIONS\MARCHING_CUBES_BAGALMUKHI_ANANTH\BAGALMUKHI\X64\DEBUG\VC142.PDB
^C:\USERS\ANAN\DESKTOP\MODIFICATIONS\MARCHING_CUBES_BAGALMUKHI_ANANTH\BAGALMUKHI\TERRAIN_GENERATOR_SLOW.CPP
C:\USERS\ANAN\DESKTOP\MODIFICATIONS\MARCHING_CUBES_BAGALMUKHI_ANANTH\BAGALMUKHI\X64\DEBUG\VC142.PDB
^C:\USERS\ANAN\DESKTOP\MODIFICATIONS\MARCHING_CUBES_BAGALMUKHI_ANANTH\BAGALMUKHI\TERRAIN_RENDERER.CPP
C:\USERS\ANAN\DESKTOP\MODIFICATIONS\MARCHING_CUBES_BAGALMUKHI_ANANTH\BAGALMUKHI\X64\DEBUG\VC142.PDB
^C:\USERS\ANAN\DESKTOP\MODIFICATIONS\MARCHING_CUBES_BAGALMUKHI_ANANTH\BAGALMUKHI\TEXTURE.CPP
C:\USERS\ANAN\DESKTOP\MODIFICATIONS\MARCHING_CUBES_BAGALMUKHI_ANANTH\BAGALMUKHI\X64\DEBUG\VC142.PDB
^C:\USERS\ANAN\DESKTOP\MODIFICATIONS\MARCHING_CUBES_BAGALMUKHI_ANANTH\BAGALMUKHI\TIMER.CPP
C:\USERS\ANAN\DESKTOP\MODIFICATIONS\MARCHING_CUBES_BAGALMUKHI_ANANTH\BAGALMUKHI\X64\DEBUG\VC142.PDB
^C:\USERS\ANAN\DESKTOP\MODIFICATIONS\MARCHING_CUBES_BAGALMUKHI_ANANTH\BAGALMUKHI\TRANSFORM_PROGRAM.CPP
C:\USERS\ANAN\DESKTOP\MODIFICATIONS\MARCHING_CUBES_BAGALMUKHI_ANANTH\BAGALMUKHI\X64\DEBUG\VC142.PDB
^C:\USERS\ANAN\DESKTOP\MODIFICATIONS\MARCHING_CUBES_BAGALMUKHI_ANANTH\BAGALMUKHI\UTILS.CPP
C:\USERS\ANAN\DESKTOP\MODIFICATIONS\MARCHING_CUBES_BAGALMUKHI_ANANTH\BAGALMUKHI\X64\DEBUG\VC142.PDB
^C:\USERS\ANAN\DESKTOP\MODIFICATIONS\MARCHING_CUBES_BAGALMUKHI_ANANTH\BAGALMUKHI\WATER.CPP
C:\USERS\ANAN\DESKTOP\MODIFICATIONS\MARCHING_CUBES_BAGALMUKHI_ANANTH\BAGALMUKHI\X64\DEBUG\VC142.PDB
^C:\USERS\ANAN\DESKTOP\MODIFICATIONS\MARCHING_CUBES_BAGALMUKHI_ANANTH\BAGALMUKHI\BLOCK.CPP|C:\USERS\ANAN\DESKTOP\MODIFICATIONS\MARCHING_CUBES_BAGALMUKHI_ANANTH\BAGALMUKHI\BLOCK_MANAGER.CPP|C:\USERS\ANAN\DESKTOP\MODIFICATIONS\MARCHING_CUBES_BAGALMUKHI_ANANTH\BAGALMUKHI\CUBE.CPP|C:\USERS\ANAN\DESKTOP\MODIFICATIONS\MARCHING_CUBES_BAGALMUKHI_ANANTH\BAGALMUKHI\DELTATIMER.CPP|C:\USERS\ANAN\DESKTOP\MODIFICATIONS\MARCHING_CUBES_BAGALMUKHI_ANANTH\BAGALMUKHI\DENSITY_SLICER.CPP|C:\USERS\ANAN\DESKTOP\MODIFICATIONS\MARCHING_CUBES_BAGALMUKHI_ANANTH\BAGALMUKHI\GEOMETRY.CPP|C:\USERS\ANAN\DESKTOP\MODIFICATIONS\MARCHING_CUBES_BAGALMUKHI_ANANTH\BAGALMUKHI\GLERRORCHECK.CPP|C:\USERS\ANAN\DESKTOP\MODIFICATIONS\MARCHING_CUBES_BAGALMUKHI_ANANTH\BAGALMUKHI\GRID.CPP|C:\USERS\ANAN\DESKTOP\MODIFICATIONS\MARCHING_CUBES_BAGALMUKHI_ANANTH\BAGALMUKHI\INDEXED_BLOCK.CPP|C:\USERS\ANAN\DESKTOP\MODIFICATIONS\MARCHING_CUBES_BAGALMUKHI_ANANTH\BAGALMUKHI\INDEXED_GEOMETRY.CPP|C:\USERS\ANAN\DESKTOP\MODIFICATIONS\MARCHING_CUBES_BAGALMUKHI_ANANTH\BAGALMUKHI\LOD.CPP|C:\USERS\ANAN\DESKTOP\MODIFICATIONS\MARCHING_CUBES_BAGALMUKHI_ANANTH\BAGALMUKHI\LOD_VISUALIZER.CPP|C:\USERS\ANAN\DESKTOP\MODIFICATIONS\MARCHING_CUBES_BAGALMUKHI_ANANTH\BAGALMUKHI\PLANE.CPP|C:\USERS\ANAN\DESKTOP\MODIFICATIONS\MARCHING_CUBES_BAGALMUKHI_ANANTH\BAGALMUKHI\SHADERPROGRAM.CPP|C:\USERS\ANAN\DESKTOP\MODIFICATIONS\MARCHING_CUBES_BAGALMUKHI_ANANTH\BAGALMUKHI\SOURCE.CPP|C:\USERS\ANAN\DESKTOP\MODIFICATIONS\MARCHING_CUBES_BAGALMUKHI_ANANTH\BAGALMUKHI\SWARM.CPP|C:\USERS\ANAN\DESKTOP\MODIFICATIONS\MARCHING_CUBES_BAGALMUKHI_ANANTH\BAGALMUKHI\TERRAIN_GENERATOR.CPP|C:\USERS\ANAN\DESKTOP\MODIFICATIONS\MARCHING_CUBES_BAGALMUKHI_ANANTH\BAGALMUKHI\TERRAIN_GENERATOR_FAST.CPP|C:\USERS\ANAN\DESKTOP\MODIFICATIONS\MARCHING_CUBES_BAGALMUKHI_ANANTH\BAGALMUKHI\TERRAIN_GENERATOR_MEDIUM.CPP|C:\USERS\ANAN\DESKTOP\MODIFICATIONS\MARCHING_CUBES_BAGALMUKHI_ANANTH\BAGALMUKHI\TERRAIN_GENERATOR_SLOW.CPP|C:\USERS\ANAN\DESKTOP\MODIFICATIONS\MARCHING_CUBES_BAGALMUKHI_ANANTH\BAGALMUKHI\TERRAIN_RENDERER.CPP|C:\USERS\ANAN\DESKTOP\MODIFICATIONS\MARCHING_CUBES_BAGALMUKHI_ANANTH\BAGALMUKHI\TEXTURE.CPP|C:\USERS\ANAN\DESKTOP\MODIFICATIONS\MARCHING_CUBES_BAGALMUKHI_ANANTH\BAGALMUKHI\TIMER.CPP|C:\USERS\ANAN\DESKTOP\MODIFICATIONS\MARCHING_CUBES_BAGALMUKHI_ANANTH\BAGALMUKHI\TRANSFORM_PROGRAM.CPP|C:\USERS\ANAN\DESKTOP\MODIFICATIONS\MARCHING_CUBES_BAGALMUKHI_ANANTH\BAGALMUKHI\UTILS.CPP|C:\USERS\ANAN\DESKTOP\MODIFICATIONS\MARCHING_CUBES_BAGALMUKHI_ANANTH\BAGALMUKHI\WATER.CPP
C:\USERS\ANAN\DESKTOP\MODIFICATIONS\MARCHING_CUBES_BAGALMUKHI_ANANTH\BAGALMUKHI\X64\DEBUG\VC142.PDB
C:\USERS\ANAN\DESKTOP\MODIFICATIONS\MARCHING_CUBES_BAGALMUKHI_ANANTH\BAGALMUKHI\X64\DEBUG\VC142.IDB
C:\USERS\ANAN\DESKTOP\MODIFICATIONS\MARCHING_CUBES_BAGALMUKHI_ANANTH\BAGALMUKHI\X64\DEBUG\TERRAIN_GENERATOR_SLOW.OBJ
C:\USERS\ANAN\DESKTOP\MODIFICATIONS\MARCHING_CUBES_BAGALMUKHI_ANANTH\BAGALMUKHI\X64\DEBUG\TERRAIN_GENERATOR_MEDIUM.OBJ
C:\USERS\ANAN\DESKTOP\MODIFICATIONS\MARCHING_CUBES_BAGALMUKHI_ANANTH\BAGALMUKHI\X64\DEBUG\TERRAIN_GENERATOR_FAST.OBJ
C:\USERS\ANAN\DESKTOP\MODIFICATIONS\MARCHING_CUBES_BAGALMUKHI_ANANTH\BAGALMUKHI\X64\DEBUG\TERRAIN_GENERATOR.OBJ
C:\USERS\ANAN\DESKTOP\MODIFICATIONS\MARCHING_CUBES_BAGALMUKHI_ANANTH\BAGALMUKHI\X64\DEBUG\SWARM.OBJ
C:\USERS\ANAN\DESKTOP\MODIFICATIONS\MARCHING_CUBES_BAGALMUKHI_ANANTH\BAGALMUKHI\X64\DEBUG\SOURCE.OBJ
C:\USERS\ANAN\DESKTOP\MODIFICATIONS\MARCHING_CUBES_BAGALMUKHI_ANANTH\BAGALMUKHI\X64\DEBUG\SHADERPROGRAM.OBJ
C:\USERS\ANAN\DESKTOP\MODIFICATIONS\MARCHING_CUBES_BAGALMUKHI_ANANTH\BAGALMUKHI\X64\DEBUG\PLANE.OBJ
C:\USERS\ANAN\DESKTOP\MODIFICATIONS\MARCHING_CUBES_BAGALMUKHI_ANANTH\BAGALMUKHI\X64\DEBUG\LOD_VISUALIZER.OBJ
C:\USERS\ANAN\DESKTOP\MODIFICATIONS\MARCHING_CUBES_BAGALMUKHI_ANANTH\BAGALMUKHI\X64\DEBUG\LOD.OBJ
C:\USERS\ANAN\DESKTOP\MODIFICATIONS\MARCHING_CUBES_BAGALMUKHI_ANANTH\BAGALMUKHI\X64\DEBUG\INDEXED_GEOMETRY.OBJ
C:\USERS\ANAN\DESKTOP\MODIFICATIONS\MARCHING_CUBES_BAGALMUKHI_ANANTH\BAGALMUKHI\X64\DEBUG\INDEXED_BLOCK.OBJ
C:\USERS\ANAN\DESKTOP\MODIFICATIONS\MARCHING_CUBES_BAGALMUKHI_ANANTH\BAGALMUKHI\X64\DEBUG\GRID.OBJ
C:\USERS\ANAN\DESKTOP\MODIFICATIONS\MARCHING_CUBES_BAGALMUKHI_ANANTH\BAGALMUKHI\X64\DEBUG\GLERRORCHECK.OBJ
C:\USERS\ANAN\DESKTOP\MODIFICATIONS\MARCHING_CUBES_BAGALMUKHI_ANANTH\BAGALMUKHI\X64\DEBUG\GEOMETRY.OBJ
C:\USERS\ANAN\DESKTOP\MODIFICATIONS\MARCHING_CUBES_BAGALMUKHI_ANANTH\BAGALMUKHI\X64\DEBUG\DENSITY_SLICER.OBJ
C:\USERS\ANAN\DESKTOP\MODIFICATIONS\MARCHING_CUBES_BAGALMUKHI_ANANTH\BAGALMUKHI\X64\DEBUG\DELTATIMER.OBJ
C:\USERS\ANAN\DESKTOP\MODIFICATIONS\MARCHING_CUBES_BAGALMUKHI_ANANTH\BAGALMUKHI\X64\DEBUG\CUBE.OBJ
C:\USERS\ANAN\DESKTOP\MODIFICATIONS\MARCHING_CUBES_BAGALMUKHI_ANANTH\BAGALMUKHI\X64\DEBUG\BLOCK_MANAGER.OBJ
C:\USERS\ANAN\DESKTOP\MODIFICATIONS\MARCHING_CUBES_BAGALMUKHI_ANANTH\BAGALMUKHI\X64\DEBUG\BLOCK.OBJ
C:\USERS\ANAN\DESKTOP\MODIFICATIONS\MARCHING_CUBES_BAGALMUKHI_ANANTH\BAGALMUKHI\X64\DEBUG\WATER.OBJ
C:\USERS\ANAN\DESKTOP\MODIFICATIONS\MARCHING_CUBES_BAGALMUKHI_ANANTH\BAGALMUKHI\X64\DEBUG\UTILS.OBJ
C:\USERS\ANAN\DESKTOP\MODIFICATIONS\MARCHING_CUBES_BAGALMUKHI_ANANTH\BAGALMUKHI\X64\DEBUG\TRANSFORM_PROGRAM.OBJ
C:\USERS\ANAN\DESKTOP\MODIFICATIONS\MARCHING_CUBES_BAGALMUKHI_ANANTH\BAGALMUKHI\X64\DEBUG\TIMER.OBJ
C:\USERS\ANAN\DESKTOP\MODIFICATIONS\MARCHING_CUBES_BAGALMUKHI_ANANTH\BAGALMUKHI\X64\DEBUG\TEXTURE.OBJ
C:\USERS\ANAN\DESKTOP\MODIFICATIONS\MARCHING_CUBES_BAGALMUKHI_ANANTH\BAGALMUKHI\X64\DEBUG\TERRAIN_RENDERER.OBJ
^C:\USERS\ANAN\DESKTOP\MODIFICATIONS\MARCHING_CUBES_BAGALMUKHI_ANANTH\BAGALMUKHI\BLOCK_MANAGER.CPP
C:\USERS\ANAN\DESKTOP\MODIFICATIONS\MARCHING_CUBES_BAGALMUKHI_ANANTH\BAGALMUKHI\X64\DEBUG\VC142.PDB
^C:\USERS\ANAN\DESKTOP\MODIFICATIONS\MARCHING_CUBES_BAGALMUKHI_ANANTH\BAGALMUKHI\SOURCE.CPP
C:\USERS\ANAN\DESKTOP\MODIFICATIONS\MARCHING_CUBES_BAGALMUKHI_ANANTH\BAGALMUKHI\X64\DEBUG\VC142.PDB
