^C:\Users\anant\Desktop\Grid\SecondGrid\Grid.vcxproj
C:\Users\anant\Desktop\Grid\SecondGrid\x64\Release\Grid.ipdb
C:\Users\anant\Desktop\Grid\SecondGrid\x64\Release\Grid.iobj
^C:\Users\anant\Desktop\Grid\SecondGrid\Grid.vcxproj
C:\Users\anant\Desktop\Grid\SecondGrid\x64\Release\Grid.ipdb
C:\Users\anant\Desktop\Grid\SecondGrid\x64\Release\Grid.iobj
^C:\Users\anant\Desktop\Grid\SecondGrid\Grid.vcxproj
C:\Users\anant\Desktop\Grid\SecondGrid\x64\Release\Grid.ipdb
C:\Users\anant\Desktop\Grid\SecondGrid\x64\Release\Grid.iobj
^C:\Users\anant\Desktop\Grid\SecondGrid\Grid.vcxproj
C:\Users\anant\Desktop\Grid\SecondGrid\x64\Release\Grid.ipdb
C:\Users\anant\Desktop\Grid\SecondGrid\x64\Release\Grid.iobj
^C:\Users\anant\Desktop\Grid\SecondGrid\Grid.vcxproj
C:\Users\anant\Desktop\Grid\SecondGrid\x64\Release\Grid.ipdb
C:\Users\anant\Desktop\Grid\SecondGrid\x64\Release\Grid.iobj
^C:\Users\anant\Desktop\Grid\SecondGrid\Grid.vcxproj
C:\Users\anant\Desktop\Grid\SecondGrid\x64\Release\Grid.ipdb
C:\Users\anant\Desktop\Grid\SecondGrid\x64\Release\Grid.iobj
^C:\Users\anant\Desktop\Grid\SecondGrid\Grid.vcxproj
C:\Users\anant\Desktop\Grid\SecondGrid\x64\Release\Grid.ipdb
C:\Users\anant\Desktop\Grid\SecondGrid\x64\Release\Grid.iobj
^C:\Users\anant\Desktop\Grid\SecondGrid\Grid.vcxproj
C:\Users\anant\Desktop\Grid\SecondGrid\x64\Release\Grid.ipdb
C:\Users\anant\Desktop\Grid\SecondGrid\x64\Release\Grid.iobj
^C:\Users\anant\Desktop\Grid\Third_Grid\Grid.vcxproj
C:\Users\anant\Desktop\Grid\Third_Grid\x64\Release\Grid.ipdb
C:\Users\anant\Desktop\Grid\Third_Grid\x64\Release\Grid.iobj
^C:\Users\anant\Desktop\Grid\Third_Grid\Grid.vcxproj
C:\Users\anant\Desktop\Grid\Third_Grid\x64\Release\Grid.ipdb
C:\Users\anant\Desktop\Grid\Third_Grid\x64\Release\Grid.iobj
^C:\Users\anant\Desktop\Grid\Third_Grid\Grid.vcxproj
C:\Users\anant\Desktop\Grid\Third_Grid\x64\Release\Grid.ipdb
C:\Users\anant\Desktop\Grid\Third_Grid\x64\Release\Grid.iobj
^C:\Users\anant\Desktop\Grid\Third_Grid\Grid.vcxproj
C:\Users\anant\Desktop\Grid\Third_Grid\x64\Release\Grid.ipdb
C:\Users\anant\Desktop\Grid\Third_Grid\x64\Release\Grid.iobj
^C:\Users\anant\Desktop\Grid\Third_Grid\Grid.vcxproj
C:\Users\anant\Desktop\Grid\Third_Grid\x64\Release\Grid.ipdb
C:\Users\anant\Desktop\Grid\Third_Grid\x64\Release\Grid.iobj
^C:\Users\anant\Desktop\Grid\Third_Grid\Grid.vcxproj
C:\Users\anant\Desktop\Grid\Third_Grid\x64\Release\Grid.ipdb
C:\Users\anant\Desktop\Grid\Third_Grid\x64\Release\Grid.iobj
^C:\Users\anant\Desktop\Grid\Third_Grid\Grid.vcxproj
C:\Users\anant\Desktop\Grid\Third_Grid\x64\Release\Grid.ipdb
C:\Users\anant\Desktop\Grid\Third_Grid\x64\Release\Grid.iobj
^C:\Users\anant\Desktop\Grid\Third_Grid\Grid.vcxproj
C:\Users\anant\Desktop\Grid\Third_Grid\x64\Release\Grid.ipdb
C:\Users\anant\Desktop\Grid\Third_Grid\x64\Release\Grid.iobj
^C:\Users\anant\Desktop\Grid\Third_Grid\Grid.vcxproj
C:\Users\anant\Desktop\Grid\Third_Grid\x64\Release\Grid.ipdb
C:\Users\anant\Desktop\Grid\Third_Grid\x64\Release\Grid.iobj
^C:\Users\anant\Desktop\Grid\FourthGrid\Grid.vcxproj
C:\Users\anant\Desktop\Grid\FourthGrid\x64\Release\Grid.ipdb
C:\Users\anant\Desktop\Grid\FourthGrid\x64\Release\Grid.iobj
^C:\Users\anant\Desktop\Grid\FourthGrid\Grid.vcxproj
C:\Users\anant\Desktop\Grid\FourthGrid\x64\Release\Grid.ipdb
C:\Users\anant\Desktop\Grid\FourthGrid\x64\Release\Grid.iobj
^C:\Users\anant\Desktop\Grid\FourthGrid\Grid.vcxproj
C:\Users\anant\Desktop\Grid\FourthGrid\x64\Release\Grid.ipdb
C:\Users\anant\Desktop\Grid\FourthGrid\x64\Release\Grid.iobj
^C:\Users\anant\Desktop\Grid\FourthGrid\Grid.vcxproj
C:\Users\anant\Desktop\Grid\FourthGrid\x64\Release\Grid.ipdb
C:\Users\anant\Desktop\Grid\FourthGrid\x64\Release\Grid.iobj
^C:\Users\anant\Desktop\Grid\FourthGrid\Grid.vcxproj
C:\Users\anant\Desktop\Grid\FourthGrid\x64\Release\Grid.ipdb
C:\Users\anant\Desktop\Grid\FourthGrid\x64\Release\Grid.iobj
^C:\Users\anant\Desktop\Grid\FourthGrid\Grid.vcxproj
C:\Users\anant\Desktop\Grid\FourthGrid\x64\Release\Grid.ipdb
C:\Users\anant\Desktop\Grid\FourthGrid\x64\Release\Grid.iobj
^C:\Users\anant\Desktop\Grid\FourthGrid\Grid.vcxproj
C:\Users\anant\Desktop\Grid\FourthGrid\x64\Release\Grid.ipdb
C:\Users\anant\Desktop\Grid\FourthGrid\x64\Release\Grid.iobj
^C:\Users\anant\Desktop\Grid\FourthGrid\Grid.vcxproj
C:\Users\anant\Desktop\Grid\FourthGrid\x64\Release\Grid.ipdb
C:\Users\anant\Desktop\Grid\FourthGrid\x64\Release\Grid.iobj
^C:\Users\anant\Desktop\Grid\FourthGrid\Grid.vcxproj
C:\Users\anant\Desktop\Grid\FourthGrid\x64\Release\Grid.ipdb
C:\Users\anant\Desktop\Grid\FourthGrid\x64\Release\Grid.iobj
^C:\Users\anant\Desktop\Grid\FourthGrid\Grid.vcxproj
C:\Users\anant\Desktop\Grid\FourthGrid\x64\Release\Grid.ipdb
C:\Users\anant\Desktop\Grid\FourthGrid\x64\Release\Grid.iobj
^C:\Users\anant\Desktop\Grid\FourthGrid\Grid.vcxproj
C:\Users\anant\Desktop\Grid\FourthGrid\x64\Release\Grid.ipdb
C:\Users\anant\Desktop\Grid\FourthGrid\x64\Release\Grid.iobj
^C:\Users\anant\Desktop\Grid\FourthGrid\Grid.vcxproj
C:\Users\anant\Desktop\Grid\FourthGrid\x64\Release\Grid.ipdb
C:\Users\anant\Desktop\Grid\FourthGrid\x64\Release\Grid.iobj
