^C:\USERS\ANANT\DESKTOP\ROTATING_SPHERE_WITH_LIGHT\COMBINED\DEBUG\TRIANGLEPERSPECTIVE.OBJ
C:\USERS\ANANT\DESKTOP\ROTATING_SPHERE_WITH_LIGHT\COMBINED\DEBUG\GANESHA_LIGHT_FIRST_CODE.ILK
C:\USERS\ANANT\DESKTOP\ROTATING_SPHERE_WITH_LIGHT\COMBINED\DEBUG\GANESHA_LIGHT_FIRST_CODE.EXE
C:\USERS\ANANT\DESKTOP\ROTATING_SPHERE_WITH_LIGHT\COMBINED\DEBUG\GANESHA_LIGHT_FIRST_CODE.PDB
