^C:\USERS\ANANT\DESKTOP\ROTATING_SPHERE_WITH_LIGHT\THREE_SPHERES_PER_FRAGMENT_LIGHTING\DEBUG\TRIANGLEPERSPECTIVE.OBJ
/OUT:"C:\USERS\ANANT\DESKTOP\ROTATING_SPHERE_WITH_LIGHT\THREE_SPHERES_PER_FRAGMENT_LIGHTING\DEBUG\GANESHA_LIGHT_FIRST_CODE.EXE" /INCREMENTAL /NOLOGO KERNEL32.LIB USER32.LIB GDI32.LIB WINSPOOL.LIB COMDLG32.LIB ADVAPI32.LIB SHELL32.LIB OLE32.LIB OLEAUT32.LIB UUID.LIB ODBC32.LIB ODBCCP32.LIB /MANIFEST /MANIFESTUAC:"level='asInvoker' uiAccess='false'" /manifest:embed /DEBUG:FASTLINK /PDB:"C:\USERS\ANANT\DESKTOP\ROTATING_SPHERE_WITH_LIGHT\THREE_SPHERES_PER_FRAGMENT_LIGHTING\DEBUG\GANESHA_LIGHT_FIRST_CODE.PDB" /SUBSYSTEM:WINDOWS /TLBID:1 /DYNAMICBASE /NXCOMPAT /IMPLIB:"C:\USERS\ANANT\DESKTOP\ROTATING_SPHERE_WITH_LIGHT\THREE_SPHERES_PER_FRAGMENT_LIGHTING\DEBUG\GANESHA_LIGHT_FIRST_CODE.LIB" /MACHINE:X86 DEBUG\TRIANGLEPERSPECTIVE.OBJ
^C:\USERS\ANANT\DESKTOP\ROTATING_SPHERE_WITH_LIGHT\THREE_SPHERES_PER_FRAGMENT_LIGHTING\ONLY_RED_LIGHT\DEBUG\TRIANGLEPERSPECTIVE.OBJ
/OUT:"C:\USERS\ANANT\DESKTOP\ROTATING_SPHERE_WITH_LIGHT\THREE_SPHERES_PER_FRAGMENT_LIGHTING\ONLY_RED_LIGHT\DEBUG\GANESHA_LIGHT_FIRST_CODE.EXE" /INCREMENTAL /NOLOGO KERNEL32.LIB USER32.LIB GDI32.LIB WINSPOOL.LIB COMDLG32.LIB ADVAPI32.LIB SHELL32.LIB OLE32.LIB OLEAUT32.LIB UUID.LIB ODBC32.LIB ODBCCP32.LIB /MANIFEST /MANIFESTUAC:"level='asInvoker' uiAccess='false'" /manifest:embed /DEBUG:FASTLINK /PDB:"C:\USERS\ANANT\DESKTOP\ROTATING_SPHERE_WITH_LIGHT\THREE_SPHERES_PER_FRAGMENT_LIGHTING\ONLY_RED_LIGHT\DEBUG\GANESHA_LIGHT_FIRST_CODE.PDB" /SUBSYSTEM:WINDOWS /TLBID:1 /DYNAMICBASE /NXCOMPAT /IMPLIB:"C:\USERS\ANANT\DESKTOP\ROTATING_SPHERE_WITH_LIGHT\THREE_SPHERES_PER_FRAGMENT_LIGHTING\ONLY_RED_LIGHT\DEBUG\GANESHA_LIGHT_FIRST_CODE.LIB" /MACHINE:X86 DEBUG\TRIANGLEPERSPECTIVE.OBJ
