^C:\USERS\ANANT\DESKTOP\TEXTURE_ASSIGNMENTS\PROBLEM\ASSIGNMENTNO2\RESOURCE.RC
C:\USERS\ANANT\DESKTOP\TEXTURE_ASSIGNMENTS\PROBLEM\ASSIGNMENTNO2\RESOURCE.H
C:\USERS\ANANT\DESKTOP\TEXTURE_ASSIGNMENTS\PROBLEM\ASSIGNMENTNO2\SMILEY.BMP
