^C:\USERS\ANANT\DESKTOP\LIGHT_ASSIGNMENTS\WINDOWS\PER-VERTEX-PHONG\DEBUG\TRIANGLEPERSPECTIVE.OBJ
C:\USERS\ANANT\DESKTOP\LIGHT_ASSIGNMENTS\WINDOWS\PER-VERTEX-PHONG\DEBUG\GANESHA_LIGHT_FIRST_CODE.ILK
C:\USERS\ANANT\DESKTOP\LIGHT_ASSIGNMENTS\WINDOWS\PER-VERTEX-PHONG\DEBUG\GANESHA_LIGHT_FIRST_CODE.EXE
C:\USERS\ANANT\DESKTOP\LIGHT_ASSIGNMENTS\WINDOWS\PER-VERTEX-PHONG\DEBUG\GANESHA_LIGHT_FIRST_CODE.PDB
^C:\USERS\ANANT\DESKTOP\LIGHT_ASSIGNMENTS\WINDOWS\COMBINED_VERTEX_AND_FRAGMENT_LIGHTING_V3\DEBUG\TRIANGLEPERSPECTIVE.OBJ
C:\USERS\ANANT\DESKTOP\LIGHT_ASSIGNMENTS\WINDOWS\COMBINED_VERTEX_AND_FRAGMENT_LIGHTING_V3\DEBUG\GANESHA_LIGHT_FIRST_CODE.ILK
C:\USERS\ANANT\DESKTOP\LIGHT_ASSIGNMENTS\WINDOWS\COMBINED_VERTEX_AND_FRAGMENT_LIGHTING_V3\DEBUG\GANESHA_LIGHT_FIRST_CODE.EXE
C:\USERS\ANANT\DESKTOP\LIGHT_ASSIGNMENTS\WINDOWS\COMBINED_VERTEX_AND_FRAGMENT_LIGHTING_V3\DEBUG\GANESHA_LIGHT_FIRST_CODE.PDB
