#Command: "C:\Program Files (x86)\Microsoft Visual Studio\2017\Community\VC\Tools\MSVC\14.10.25017\bin\HostX86\x86\link.exe" /ERRORREPORT:PROMPT @C:\Users\anant\AppData\Local\Temp\tmpb5917d1357a64688a2fe56a87a8f24b7.rsp /incremental /nologo /fullbuild
^C:\USERS\ANANT\DESKTOP\GANESHA\MULTISPHERE_USING2DARRAY\DEBUG\SOURCE.OBJ
C:\USERS\ANANT\DESKTOP\GANESHA\MULTISPHERE_USING2DARRAY\DEBUG\TEST.PDB
