^C:\USERS\ANANT\DESKTOP\GEOMETRY\COLORLESS\SOURCE.CPP
C:\USERS\ANANT\DESKTOP\GEOMETRY\COLORLESS\DEBUG\VC141.PDB
C:\USERS\ANANT\DESKTOP\GEOMETRY\COLORLESS\DEBUG\VC141.IDB
C:\USERS\ANANT\DESKTOP\GEOMETRY\COLORLESS\DEBUG\SOURCE.OBJ
