^C:\USERS\ANANT\DESKTOP\DIRECTX\04 -MULTICOLORED TRIANGLE\DEBUG\SOURCE.OBJ
C:\USERS\ANANT\DESKTOP\DIRECTX\04 -MULTICOLORED TRIANGLE\DEBUG\04 -MULTICOLORED TRIANGLE.ILK
C:\USERS\ANANT\DESKTOP\DIRECTX\04 -MULTICOLORED TRIANGLE\DEBUG\04 -MULTICOLORED TRIANGLE.EXE
C:\USERS\ANANT\DESKTOP\DIRECTX\04 -MULTICOLORED TRIANGLE\DEBUG\04 -MULTICOLORED TRIANGLE.PDB
