^C:\USERS\ANANT\DESKTOP\GANESHA_LIGHT_FIRST_CODE\DEBUG\TRIANGLEPERSPECTIVE.OBJ
/OUT:"C:\USERS\ANANT\DESKTOP\GANESHA_LIGHT_FIRST_CODE\DEBUG\GANESHA_LIGHT_FIRST_CODE.EXE" /INCREMENTAL /NOLOGO KERNEL32.LIB USER32.LIB GDI32.LIB WINSPOOL.LIB COMDLG32.LIB ADVAPI32.LIB SHELL32.LIB OLE32.LIB OLEAUT32.LIB UUID.LIB ODBC32.LIB ODBCCP32.LIB /MANIFEST /MANIFESTUAC:"level='asInvoker' uiAccess='false'" /manifest:embed /DEBUG:FASTLINK /PDB:"C:\USERS\ANANT\DESKTOP\GANESHA_LIGHT_FIRST_CODE\DEBUG\GANESHA_LIGHT_FIRST_CODE.PDB" /SUBSYSTEM:WINDOWS /TLBID:1 /DYNAMICBASE /NXCOMPAT /IMPLIB:"C:\USERS\ANANT\DESKTOP\GANESHA_LIGHT_FIRST_CODE\DEBUG\GANESHA_LIGHT_FIRST_CODE.LIB" /MACHINE:X86 DEBUG\TRIANGLEPERSPECTIVE.OBJ
^C:\USERS\ANANT\DESKTOP\GANESHA_LIGHT_PP\TEMPLATE_CUBE_WITHOUT_COLOR\DEBUG\TRIANGLEPERSPECTIVE.OBJ
/OUT:"C:\USERS\ANANT\DESKTOP\GANESHA_LIGHT_PP\TEMPLATE_CUBE_WITHOUT_COLOR\DEBUG\GANESHA_LIGHT_FIRST_CODE.EXE" /INCREMENTAL /NOLOGO KERNEL32.LIB USER32.LIB GDI32.LIB WINSPOOL.LIB COMDLG32.LIB ADVAPI32.LIB SHELL32.LIB OLE32.LIB OLEAUT32.LIB UUID.LIB ODBC32.LIB ODBCCP32.LIB /MANIFEST /MANIFESTUAC:"level='asInvoker' uiAccess='false'" /manifest:embed /DEBUG:FASTLINK /PDB:"C:\USERS\ANANT\DESKTOP\GANESHA_LIGHT_PP\TEMPLATE_CUBE_WITHOUT_COLOR\DEBUG\GANESHA_LIGHT_FIRST_CODE.PDB" /SUBSYSTEM:WINDOWS /TLBID:1 /DYNAMICBASE /NXCOMPAT /IMPLIB:"C:\USERS\ANANT\DESKTOP\GANESHA_LIGHT_PP\TEMPLATE_CUBE_WITHOUT_COLOR\DEBUG\GANESHA_LIGHT_FIRST_CODE.LIB" /MACHINE:X86 DEBUG\TRIANGLEPERSPECTIVE.OBJ
^C:\USERS\ANANT\DESKTOP\LIGHT_ASSIGNMENTS\ASSIGNMENT_12_LIGHT_PP\PER-VERTEX-PHONG\DEBUG\TRIANGLEPERSPECTIVE.OBJ
/OUT:"C:\USERS\ANANT\DESKTOP\LIGHT_ASSIGNMENTS\ASSIGNMENT_12_LIGHT_PP\PER-VERTEX-PHONG\DEBUG\GANESHA_LIGHT_FIRST_CODE.EXE" /INCREMENTAL /NOLOGO KERNEL32.LIB USER32.LIB GDI32.LIB WINSPOOL.LIB COMDLG32.LIB ADVAPI32.LIB SHELL32.LIB OLE32.LIB OLEAUT32.LIB UUID.LIB ODBC32.LIB ODBCCP32.LIB /MANIFEST /MANIFESTUAC:"level='asInvoker' uiAccess='false'" /manifest:embed /DEBUG:FASTLINK /PDB:"C:\USERS\ANANT\DESKTOP\LIGHT_ASSIGNMENTS\ASSIGNMENT_12_LIGHT_PP\PER-VERTEX-PHONG\DEBUG\GANESHA_LIGHT_FIRST_CODE.PDB" /SUBSYSTEM:WINDOWS /TLBID:1 /DYNAMICBASE /NXCOMPAT /IMPLIB:"C:\USERS\ANANT\DESKTOP\LIGHT_ASSIGNMENTS\ASSIGNMENT_12_LIGHT_PP\PER-VERTEX-PHONG\DEBUG\GANESHA_LIGHT_FIRST_CODE.LIB" /MACHINE:X86 DEBUG\TRIANGLEPERSPECTIVE.OBJ
^C:\USERS\ANANT\DESKTOP\LIGHT_ASSIGNMENTS\WINDOWS\PER-VERTEX-PHONG\DEBUG\TRIANGLEPERSPECTIVE.OBJ
/OUT:"C:\USERS\ANANT\DESKTOP\LIGHT_ASSIGNMENTS\WINDOWS\PER-VERTEX-PHONG\DEBUG\GANESHA_LIGHT_FIRST_CODE.EXE" /INCREMENTAL /NOLOGO KERNEL32.LIB USER32.LIB GDI32.LIB WINSPOOL.LIB COMDLG32.LIB ADVAPI32.LIB SHELL32.LIB OLE32.LIB OLEAUT32.LIB UUID.LIB ODBC32.LIB ODBCCP32.LIB /MANIFEST /MANIFESTUAC:"level='asInvoker' uiAccess='false'" /manifest:embed /DEBUG:FASTLINK /PDB:"C:\USERS\ANANT\DESKTOP\LIGHT_ASSIGNMENTS\WINDOWS\PER-VERTEX-PHONG\DEBUG\GANESHA_LIGHT_FIRST_CODE.PDB" /SUBSYSTEM:WINDOWS /TLBID:1 /DYNAMICBASE /NXCOMPAT /IMPLIB:"C:\USERS\ANANT\DESKTOP\LIGHT_ASSIGNMENTS\WINDOWS\PER-VERTEX-PHONG\DEBUG\GANESHA_LIGHT_FIRST_CODE.LIB" /MACHINE:X86 DEBUG\TRIANGLEPERSPECTIVE.OBJ
^C:\USERS\ANANT\DESKTOP\LIGHT_ASSIGNMENTS\WINDOWS\ROTATING_PYRAMID_WITH_LIGHTS\DEBUG\TRIANGLEPERSPECTIVE.OBJ
/OUT:"C:\USERS\ANANT\DESKTOP\LIGHT_ASSIGNMENTS\WINDOWS\ROTATING_PYRAMID_WITH_LIGHTS\DEBUG\GANESHA_LIGHT_FIRST_CODE.EXE" /INCREMENTAL /NOLOGO KERNEL32.LIB USER32.LIB GDI32.LIB WINSPOOL.LIB COMDLG32.LIB ADVAPI32.LIB SHELL32.LIB OLE32.LIB OLEAUT32.LIB UUID.LIB ODBC32.LIB ODBCCP32.LIB /MANIFEST /MANIFESTUAC:"level='asInvoker' uiAccess='false'" /manifest:embed /DEBUG:FASTLINK /PDB:"C:\USERS\ANANT\DESKTOP\LIGHT_ASSIGNMENTS\WINDOWS\ROTATING_PYRAMID_WITH_LIGHTS\DEBUG\GANESHA_LIGHT_FIRST_CODE.PDB" /SUBSYSTEM:WINDOWS /TLBID:1 /DYNAMICBASE /NXCOMPAT /IMPLIB:"C:\USERS\ANANT\DESKTOP\LIGHT_ASSIGNMENTS\WINDOWS\ROTATING_PYRAMID_WITH_LIGHTS\DEBUG\GANESHA_LIGHT_FIRST_CODE.LIB" /MACHINE:X86 DEBUG\TRIANGLEPERSPECTIVE.OBJ
