^C:\USERS\ANANT\DESKTOP\TESCAELLATION\UPDATED_2\DEBUG\SOURCE.OBJ
C:\USERS\ANANT\DESKTOP\TESCAELLATION\UPDATED_2\DEBUG\GANESHA_INTERLEAVED1D.ILK
C:\USERS\ANANT\DESKTOP\TESCAELLATION\UPDATED_2\DEBUG\GANESHA_INTERLEAVED1D.EXE
C:\USERS\ANANT\DESKTOP\TESCAELLATION\UPDATED_2\DEBUG\GANESHA_INTERLEAVED1D.PDB
