Log File Is Successfully Opened.
glsl version=4.50

bitmap width=4096
bitmap height=2048
fh.bfsize =25165946
length =25165824
fLargest =16.000000
bitmap width=4096
bitmap height=2048
fh.bfsize =25165878
length =25165824
fLargest =16.000000
bitmap width=4096
bitmap height=2048
fh.bfsize =25165878
length =25165824
fLargest =16.000000fLargest =16.000000Log File Is Successfully Closed.
