^C:\USERS\ANANT\DESKTOP\GANESHA\TEAPOT\X64\RELEASE\TEST.OBJ
/OUT:"C:\USERS\ANANT\DESKTOP\GANESHA\TEAPOT\X64\RELEASE\TEAPOT.EXE" /INCREMENTAL:NO /NOLOGO KERNEL32.LIB USER32.LIB GDI32.LIB WINSPOOL.LIB COMDLG32.LIB ADVAPI32.LIB SHELL32.LIB OLE32.LIB OLEAUT32.LIB UUID.LIB ODBC32.LIB ODBCCP32.LIB /MANIFEST /MANIFESTUAC:"level='asInvoker' uiAccess='false'" /manifest:embed /DEBUG:FULL /PDB:"C:\USERS\ANANT\DESKTOP\GANESHA\TEAPOT\X64\RELEASE\TEAPOT.PDB" /SUBSYSTEM:WINDOWS /OPT:REF /OPT:ICF /LTCG:incremental /TLBID:1 /DYNAMICBASE /NXCOMPAT /IMPLIB:"C:\USERS\ANANT\DESKTOP\GANESHA\TEAPOT\X64\RELEASE\TEAPOT.LIB" /MACHINE:X64 X64\RELEASE\TEST.OBJ
^C:\USERS\ANANT\DESKTOP\GANESHA\SUBMISSION\TEAPOT\X64\RELEASE\TEST.OBJ
/OUT:"C:\USERS\ANANT\DESKTOP\GANESHA\SUBMISSION\TEAPOT\X64\RELEASE\TEAPOT.EXE" /INCREMENTAL:NO /NOLOGO KERNEL32.LIB USER32.LIB GDI32.LIB WINSPOOL.LIB COMDLG32.LIB ADVAPI32.LIB SHELL32.LIB OLE32.LIB OLEAUT32.LIB UUID.LIB ODBC32.LIB ODBCCP32.LIB /MANIFEST /MANIFESTUAC:"level='asInvoker' uiAccess='false'" /manifest:embed /DEBUG:FULL /PDB:"C:\USERS\ANANT\DESKTOP\GANESHA\SUBMISSION\TEAPOT\X64\RELEASE\TEAPOT.PDB" /SUBSYSTEM:WINDOWS /OPT:REF /OPT:ICF /LTCG:incremental /TLBID:1 /DYNAMICBASE /NXCOMPAT /IMPLIB:"C:\USERS\ANANT\DESKTOP\GANESHA\SUBMISSION\TEAPOT\X64\RELEASE\TEAPOT.LIB" /MACHINE:X64 X64\RELEASE\TEST.OBJ
^C:\USERS\ANANT\DOCUMENTS\MYPROGRAMS\ANANTHCHANDRASEKHARANRTRASSIGNMENTS\OPENGL_ON_WINDOWS\NATIVE\ASSIGNMENT_13\ASSIGNMENT_05\SUBMIT-1\X64\RELEASE\TEST.OBJ
/OUT:"C:\USERS\ANANT\DOCUMENTS\MYPROGRAMS\ANANTHCHANDRASEKHARANRTRASSIGNMENTS\OPENGL_ON_WINDOWS\NATIVE\ASSIGNMENT_13\ASSIGNMENT_05\SUBMIT-1\X64\RELEASE\TEAPOT.EXE" /INCREMENTAL:NO /NOLOGO KERNEL32.LIB USER32.LIB GDI32.LIB WINSPOOL.LIB COMDLG32.LIB ADVAPI32.LIB SHELL32.LIB OLE32.LIB OLEAUT32.LIB UUID.LIB ODBC32.LIB ODBCCP32.LIB /MANIFEST /MANIFESTUAC:"level='asInvoker' uiAccess='false'" /manifest:embed /DEBUG:FULL /PDB:"C:\USERS\ANANT\DOCUMENTS\MYPROGRAMS\ANANTHCHANDRASEKHARANRTRASSIGNMENTS\OPENGL_ON_WINDOWS\NATIVE\ASSIGNMENT_13\ASSIGNMENT_05\SUBMIT-1\X64\RELEASE\TEAPOT.PDB" /SUBSYSTEM:WINDOWS /OPT:REF /OPT:ICF /LTCG:incremental /TLBID:1 /DYNAMICBASE /NXCOMPAT /IMPLIB:"C:\USERS\ANANT\DOCUMENTS\MYPROGRAMS\ANANTHCHANDRASEKHARANRTRASSIGNMENTS\OPENGL_ON_WINDOWS\NATIVE\ASSIGNMENT_13\ASSIGNMENT_05\SUBMIT-1\X64\RELEASE\TEAPOT.LIB" /MACHINE:X64 X64\RELEASE\TEST.OBJ
