^C:\USERS\ANANT\DESKTOP\GANESHA\MONKEYMESHLOADER_1\WIN32PROJECT1\X64\DEBUG\TEST.OBJ
/OUT:"C:\USERS\ANANT\DESKTOP\GANESHA\MONKEYMESHLOADER_1\WIN32PROJECT1\X64\DEBUG\WIN32PROJECT1.EXE" /INCREMENTAL /NOLOGO KERNEL32.LIB USER32.LIB GDI32.LIB WINSPOOL.LIB COMDLG32.LIB ADVAPI32.LIB SHELL32.LIB OLE32.LIB OLEAUT32.LIB UUID.LIB ODBC32.LIB ODBCCP32.LIB /MANIFEST /MANIFESTUAC:"level='asInvoker' uiAccess='false'" /manifest:embed /DEBUG:FASTLINK /PDB:"C:\USERS\ANANT\DESKTOP\GANESHA\MONKEYMESHLOADER_1\WIN32PROJECT1\X64\DEBUG\WIN32PROJECT1.PDB" /SUBSYSTEM:WINDOWS /TLBID:1 /DYNAMICBASE /NXCOMPAT /IMPLIB:"C:\USERS\ANANT\DESKTOP\GANESHA\MONKEYMESHLOADER_1\WIN32PROJECT1\X64\DEBUG\WIN32PROJECT1.LIB" /MACHINE:X64 X64\DEBUG\TEST.OBJ
^C:\USERS\ANANT\DESKTOP\GANESHA\SUBMISSION\MONKEYMESHLOADER_LIGHT\WIN32PROJECT1\X64\DEBUG\TEST.OBJ
/OUT:"C:\USERS\ANANT\DESKTOP\GANESHA\SUBMISSION\MONKEYMESHLOADER_LIGHT\WIN32PROJECT1\X64\DEBUG\WIN32PROJECT1.EXE" /INCREMENTAL /NOLOGO KERNEL32.LIB USER32.LIB GDI32.LIB WINSPOOL.LIB COMDLG32.LIB ADVAPI32.LIB SHELL32.LIB OLE32.LIB OLEAUT32.LIB UUID.LIB ODBC32.LIB ODBCCP32.LIB /MANIFEST /MANIFESTUAC:"level='asInvoker' uiAccess='false'" /manifest:embed /DEBUG:FASTLINK /PDB:"C:\USERS\ANANT\DESKTOP\GANESHA\SUBMISSION\MONKEYMESHLOADER_LIGHT\WIN32PROJECT1\X64\DEBUG\WIN32PROJECT1.PDB" /SUBSYSTEM:WINDOWS /TLBID:1 /DYNAMICBASE /NXCOMPAT /IMPLIB:"C:\USERS\ANANT\DESKTOP\GANESHA\SUBMISSION\MONKEYMESHLOADER_LIGHT\WIN32PROJECT1\X64\DEBUG\WIN32PROJECT1.LIB" /MACHINE:X64 X64\DEBUG\TEST.OBJ
^C:\USERS\ANANT\DOCUMENTS\MYPROGRAMS\ANANTHCHANDRASEKHARANRTRASSIGNMENTS\OPENGL_ON_WINDOWS\NATIVE\ASSIGNMENT_13\ASSIGNMENT_01\SUBMIT_2\X64\DEBUG\TEST.OBJ
/OUT:"C:\USERS\ANANT\DOCUMENTS\MYPROGRAMS\ANANTHCHANDRASEKHARANRTRASSIGNMENTS\OPENGL_ON_WINDOWS\NATIVE\ASSIGNMENT_13\ASSIGNMENT_01\SUBMIT_2\X64\DEBUG\WIN32PROJECT1.EXE" /INCREMENTAL /NOLOGO KERNEL32.LIB USER32.LIB GDI32.LIB WINSPOOL.LIB COMDLG32.LIB ADVAPI32.LIB SHELL32.LIB OLE32.LIB OLEAUT32.LIB UUID.LIB ODBC32.LIB ODBCCP32.LIB /MANIFEST /MANIFESTUAC:"level='asInvoker' uiAccess='false'" /manifest:embed /DEBUG:FASTLINK /PDB:"C:\USERS\ANANT\DOCUMENTS\MYPROGRAMS\ANANTHCHANDRASEKHARANRTRASSIGNMENTS\OPENGL_ON_WINDOWS\NATIVE\ASSIGNMENT_13\ASSIGNMENT_01\SUBMIT_2\X64\DEBUG\WIN32PROJECT1.PDB" /SUBSYSTEM:WINDOWS /TLBID:1 /DYNAMICBASE /NXCOMPAT /IMPLIB:"C:\USERS\ANANT\DOCUMENTS\MYPROGRAMS\ANANTHCHANDRASEKHARANRTRASSIGNMENTS\OPENGL_ON_WINDOWS\NATIVE\ASSIGNMENT_13\ASSIGNMENT_01\SUBMIT_2\X64\DEBUG\WIN32PROJECT1.LIB" /MACHINE:X64 X64\DEBUG\TEST.OBJ
