^C:\USERS\ANANT\DESKTOP\ASSIGNMENT_02_MATERIALSLIGHT\FINAL\MULTISPHERE_2\TEST\DEBUG\SOURCE.OBJ
C:\USERS\ANANT\DESKTOP\ASSIGNMENT_02_MATERIALSLIGHT\FINAL\MULTISPHERE_2\TEST\DEBUG\TEST.ILK
C:\USERS\ANANT\DESKTOP\ASSIGNMENT_02_MATERIALSLIGHT\FINAL\MULTISPHERE_2\TEST\DEBUG\TEST.EXE
C:\USERS\ANANT\DESKTOP\ASSIGNMENT_02_MATERIALSLIGHT\FINAL\MULTISPHERE_2\TEST\DEBUG\TEST.PDB
^C:\USERS\ANANT\DESKTOP\ASSIGNMENT_02_MATERIALSLIGHT\MULTISPHERE_USING2DARRAY\DEBUG\SOURCE.OBJ
C:\USERS\ANANT\DESKTOP\ASSIGNMENT_02_MATERIALSLIGHT\MULTISPHERE_USING2DARRAY\DEBUG\TEST.ILK
C:\USERS\ANANT\DESKTOP\ASSIGNMENT_02_MATERIALSLIGHT\MULTISPHERE_USING2DARRAY\DEBUG\TEST.EXE
C:\USERS\ANANT\DESKTOP\ASSIGNMENT_02_MATERIALSLIGHT\MULTISPHERE_USING2DARRAY\DEBUG\TEST.PDB
