^C:\USERS\ANANT\DESKTOP\LIGHT_ASSIGNMENTS\WINDOWS\ROTATING_PYRAMID_WITH_LIGHTS\04_FINAL_TWO_LIGHT\DEBUG\TRIANGLEPERSPECTIVE.OBJ
C:\USERS\ANANT\DESKTOP\LIGHT_ASSIGNMENTS\WINDOWS\ROTATING_PYRAMID_WITH_LIGHTS\04_FINAL_TWO_LIGHT\DEBUG\GANESHA_LIGHT_FIRST_CODE.ILK
C:\USERS\ANANT\DESKTOP\LIGHT_ASSIGNMENTS\WINDOWS\ROTATING_PYRAMID_WITH_LIGHTS\04_FINAL_TWO_LIGHT\DEBUG\GANESHA_LIGHT_FIRST_CODE.EXE
C:\USERS\ANANT\DESKTOP\LIGHT_ASSIGNMENTS\WINDOWS\ROTATING_PYRAMID_WITH_LIGHTS\04_FINAL_TWO_LIGHT\DEBUG\GANESHA_LIGHT_FIRST_CODE.PDB
