^C:\USERS\ANANT\DESKTOP\GANESHA\SUBMISSION\TEAPOT\TEST.CPP
C:\USERS\ANANT\DESKTOP\GANESHA\SUBMISSION\TEAPOT\X64\RELEASE\VC141.PDB
C:\USERS\ANANT\DESKTOP\GANESHA\SUBMISSION\TEAPOT\X64\RELEASE\TEST.OBJ
