^C:\USERS\ANANT\DESKTOP\GRID\SECONDGRID\TRIANGLEPERSPECTIVE.CPP
C:\USERS\ANANT\DESKTOP\GRID\SECONDGRID\X64\RELEASE\VC141.PDB
C:\USERS\ANANT\DESKTOP\GRID\SECONDGRID\X64\RELEASE\TRIANGLEPERSPECTIVE.OBJ
