-- Merging decision tree log ---
manifest
ADDED from C:\Users\anant\Desktop\Submit-2\No_Event_handling\Sample\app\src\main\AndroidManifest.xml:2:1-22:12
MERGED from [com.android.support.constraint:constraint-layout:1.0.2] C:\Users\anant\.gradle\caches\transforms-1\files-1.1\constraint-layout-1.0.2.aar\b2fec6d43dc3ec1e7004a648789cdae0\AndroidManifest.xml:2:1-11:12
	package
		ADDED from C:\Users\anant\Desktop\Submit-2\No_Event_handling\Sample\app\src\main\AndroidManifest.xml:3:5-40
	xmlns:android
		ADDED from C:\Users\anant\Desktop\Submit-2\No_Event_handling\Sample\app\src\main\AndroidManifest.xml:2:11-69
application
ADDED from C:\Users\anant\Desktop\Submit-2\No_Event_handling\Sample\app\src\main\AndroidManifest.xml:5:5-16:19
MERGED from [com.android.support.constraint:constraint-layout:1.0.2] C:\Users\anant\.gradle\caches\transforms-1\files-1.1\constraint-layout-1.0.2.aar\b2fec6d43dc3ec1e7004a648789cdae0\AndroidManifest.xml:9:5-20
MERGED from [com.android.support.constraint:constraint-layout:1.0.2] C:\Users\anant\.gradle\caches\transforms-1\files-1.1\constraint-layout-1.0.2.aar\b2fec6d43dc3ec1e7004a648789cdae0\AndroidManifest.xml:9:5-20
	android:label
		ADDED from C:\Users\anant\Desktop\Submit-2\No_Event_handling\Sample\app\src\main\AndroidManifest.xml:7:9-41
	android:roundIcon
		ADDED from C:\Users\anant\Desktop\Submit-2\No_Event_handling\Sample\app\src\main\AndroidManifest.xml:8:9-44
	android:icon
		ADDED from C:\Users\anant\Desktop\Submit-2\No_Event_handling\Sample\app\src\main\AndroidManifest.xml:6:9-39
activity#com.astromedicomp.NoEvent.ACActivity
ADDED from C:\Users\anant\Desktop\Submit-2\No_Event_handling\Sample\app\src\main\AndroidManifest.xml:9:9-15:20
	android:name
		ADDED from C:\Users\anant\Desktop\Submit-2\No_Event_handling\Sample\app\src\main\AndroidManifest.xml:9:19-45
intent-filter#android.intent.action.MAIN+android.intent.category.LAUNCHER
ADDED from C:\Users\anant\Desktop\Submit-2\No_Event_handling\Sample\app\src\main\AndroidManifest.xml:10:13-14:29
action#android.intent.action.MAIN
ADDED from C:\Users\anant\Desktop\Submit-2\No_Event_handling\Sample\app\src\main\AndroidManifest.xml:11:17-69
	android:name
		ADDED from C:\Users\anant\Desktop\Submit-2\No_Event_handling\Sample\app\src\main\AndroidManifest.xml:11:25-66
category#android.intent.category.LAUNCHER
ADDED from C:\Users\anant\Desktop\Submit-2\No_Event_handling\Sample\app\src\main\AndroidManifest.xml:13:17-77
	android:name
		ADDED from C:\Users\anant\Desktop\Submit-2\No_Event_handling\Sample\app\src\main\AndroidManifest.xml:13:27-74
uses-sdk
ADDED from C:\Users\anant\Desktop\Submit-2\No_Event_handling\Sample\app\src\main\AndroidManifest.xml:18:2-20:34
MERGED from [com.android.support.constraint:constraint-layout:1.0.2] C:\Users\anant\.gradle\caches\transforms-1\files-1.1\constraint-layout-1.0.2.aar\b2fec6d43dc3ec1e7004a648789cdae0\AndroidManifest.xml:5:5-7:41
MERGED from [com.android.support.constraint:constraint-layout:1.0.2] C:\Users\anant\.gradle\caches\transforms-1\files-1.1\constraint-layout-1.0.2.aar\b2fec6d43dc3ec1e7004a648789cdae0\AndroidManifest.xml:5:5-7:41
	android:targetSdkVersion
		ADDED from C:\Users\anant\Desktop\Submit-2\No_Event_handling\Sample\app\src\main\AndroidManifest.xml:19:5-34
	android:minSdkVersion
		ADDED from C:\Users\anant\Desktop\Submit-2\No_Event_handling\Sample\app\src\main\AndroidManifest.xml:20:5-31
