^C:\USERS\ANANT\DESKTOP\BK\TEXTURE\3D_ROTATION_WITH_TEXTURING\SOURCE.CPP
C:\USERS\ANANT\DESKTOP\BK\TEXTURE\3D_ROTATION_WITH_TEXTURING\DEBUG\VC141.PDB
C:\USERS\ANANT\DESKTOP\BK\TEXTURE\3D_ROTATION_WITH_TEXTURING\DEBUG\VC141.IDB
C:\USERS\ANANT\DESKTOP\BK\TEXTURE\3D_ROTATION_WITH_TEXTURING\DEBUG\SOURCE.OBJ
