﻿  Source.cpp
  Win32Project1.vcxproj -> C:\Users\anant\Desktop\bk\Light_On _Cube\3_Per_Pixel_Phong_Light\Win32Project1\Debug\Win32Project1.exe
  Win32Project1.vcxproj -> C:\Users\anant\Desktop\bk\Light_On _Cube\3_Per_Pixel_Phong_Light\Win32Project1\Debug\Win32Project1.pdb (Partial PDB)
