^C:\USERS\ANANT\DESKTOP\BK\LIGHT_ON _CUBE\8_BLINN\SOURCE.CPP
C:\USERS\ANANT\DESKTOP\BK\LIGHT_ON _CUBE\8_BLINN\DEBUG\VC141.PDB
C:\USERS\ANANT\DESKTOP\BK\LIGHT_ON _CUBE\8_BLINN\DEBUG\VC141.IDB
C:\USERS\ANANT\DESKTOP\BK\LIGHT_ON _CUBE\8_BLINN\DEBUG\SOURCE.OBJ
