^C:\USERS\ANANT\DESKTOP\BK\LIGHT_ON _CUBE\8_BLINN\DEBUG\SOURCE.OBJ|C:\USERS\ANANT\DESKTOP\BK\LIGHT_ON _CUBE\8_BLINN\SPHERE.LIB
C:\USERS\ANANT\DESKTOP\BK\LIGHT_ON _CUBE\8_BLINN\DEBUG\8_BLINN.ILK
C:\USERS\ANANT\DESKTOP\BK\LIGHT_ON _CUBE\8_BLINN\DEBUG\8_BLINN.EXE
C:\USERS\ANANT\DESKTOP\BK\LIGHT_ON _CUBE\8_BLINN\DEBUG\8_BLINN.PDB
