^C:\USERS\ANANT\DESKTOP\TEXTURE_ASSIGNMENTS\ASSIGNMENTNO1\DEBUG\RESOURCE.RES|C:\USERS\ANANT\DESKTOP\TEXTURE_ASSIGNMENTS\ASSIGNMENTNO1\DEBUG\SOURCEONEPOINTONE.OBJ
C:\USERS\ANANT\DESKTOP\TEXTURE_ASSIGNMENTS\ASSIGNMENTNO1\DEBUG\ASSIGNMENTNO1.ILK
C:\USERS\ANANT\DESKTOP\TEXTURE_ASSIGNMENTS\ASSIGNMENTNO1\DEBUG\ASSIGNMENTNO1.EXE
C:\USERS\ANANT\DESKTOP\TEXTURE_ASSIGNMENTS\ASSIGNMENTNO1\DEBUG\ASSIGNMENTNO1.PDB
^C:\USERS\ANANT\DESKTOP\TEXTURE_ASSIGNMENTS\TEST\DEBUG\MSOGLWINDOW.OBJ|C:\USERS\ANANT\DESKTOP\TEXTURE_ASSIGNMENTS\TEST\DEBUG\MSOGLWINDOW.RES
C:\USERS\ANANT\DESKTOP\TEXTURE_ASSIGNMENTS\TEST\DEBUG\ASSIGNMENTNO1.ILK
C:\USERS\ANANT\DESKTOP\TEXTURE_ASSIGNMENTS\TEST\DEBUG\ASSIGNMENTNO1.EXE
C:\USERS\ANANT\DESKTOP\TEXTURE_ASSIGNMENTS\TEST\DEBUG\LNK{C34FA003-CF5F-42AB-A44A-AFCFCD546EFC}.TMP
C:\USERS\ANANT\DESKTOP\TEXTURE_ASSIGNMENTS\TEST\DEBUG\ASSIGNMENTNO1.PDB
