^C:\USERS\ANANT\DESKTOP\TEXTURE_ASSIGNMENTS\ASSIGNMENTNO1\RESOURCE.RC
/D _UNICODE /D UNICODE /l"0x0409" /nologo /fo"DEBUG\RESOURCE.RES"   C:\USERS\ANANT\DESKTOP\TEXTURE_ASSIGNMENTS\ASSIGNMENTNO1\RESOURCE.RC
^C:\USERS\ANANT\DESKTOP\TEXTURE_ASSIGNMENTS\TEST\MSOGLWINDOW.RC
/D _UNICODE /D UNICODE /l"0x0409" /nologo /fo"DEBUG\MSOGLWINDOW.RES"   C:\USERS\ANANT\DESKTOP\TEXTURE_ASSIGNMENTS\TEST\MSOGLWINDOW.RC
