^C:\USERS\ANAN\DESKTOP\SOIL\SRC\IMAGE_DXT.C
/c /Zi /nologo /W3 /WX- /Od /D WIN32 /D _DEBUG /D _LIB /D _UNICODE /D UNICODE /Gm /EHsc /RTC1 /MDd /GS /fp:precise /Zc:wchar_t /Zc:forScope /Fo"X64\DEBUG\\" /Fd"X64\DEBUG\VC110.PDB" /Gd /TC C:\USERS\ANAN\DESKTOP\SOIL\SRC\IMAGE_DXT.C
^C:\USERS\ANAN\DESKTOP\SOIL\SRC\IMAGE_HELPER.C
/c /Zi /nologo /W3 /WX- /Od /D WIN32 /D _DEBUG /D _LIB /D _UNICODE /D UNICODE /Gm /EHsc /RTC1 /MDd /GS /fp:precise /Zc:wchar_t /Zc:forScope /Fo"X64\DEBUG\\" /Fd"X64\DEBUG\VC110.PDB" /Gd /TC C:\USERS\ANAN\DESKTOP\SOIL\SRC\IMAGE_HELPER.C
^C:\USERS\ANAN\DESKTOP\SOIL\SRC\SOIL.C
/c /Zi /nologo /W3 /WX- /Od /D WIN32 /D _DEBUG /D _LIB /D _UNICODE /D UNICODE /Gm /EHsc /RTC1 /MDd /GS /fp:precise /Zc:wchar_t /Zc:forScope /Fo"X64\DEBUG\\" /Fd"X64\DEBUG\VC110.PDB" /Gd /TC C:\USERS\ANAN\DESKTOP\SOIL\SRC\SOIL.C
^C:\USERS\ANAN\DESKTOP\SOIL\SRC\STB_IMAGE_AUG.C
/c /Zi /nologo /W3 /WX- /Od /D WIN32 /D _DEBUG /D _LIB /D _UNICODE /D UNICODE /Gm /EHsc /RTC1 /MDd /GS /fp:precise /Zc:wchar_t /Zc:forScope /Fo"X64\DEBUG\\" /Fd"X64\DEBUG\VC110.PDB" /Gd /TC C:\USERS\ANAN\DESKTOP\SOIL\SRC\STB_IMAGE_AUG.C
