^C:\USERS\ANANT\DESKTOP\GANESHA\STRTOK_S_EXAMPLE\DEBUG\SOURCE.OBJ
C:\USERS\ANANT\DESKTOP\GANESHA\STRTOK_S_EXAMPLE\DEBUG\STRTOK_S_EXAMPLE.ILK
C:\USERS\ANANT\DESKTOP\GANESHA\STRTOK_S_EXAMPLE\DEBUG\STRTOK_S_EXAMPLE.EXE
C:\USERS\ANANT\DESKTOP\GANESHA\STRTOK_S_EXAMPLE\DEBUG\STRTOK_S_EXAMPLE.PDB
